[
  {
    "id": {
      "$oid": "5b9699effc13ae7d8a0000b9"
    },
    "list": {
      "$oid": "5b9692cafc13ae6e230000df"
    },
    "title": 1,
    "description": "Lorem ipsum dolor sit amet, consectetur adipiscing elit. Integer et ex quis ligula vulputate scelerisque.",
    "image": "",
    "creation_date": "2017-12-15",
    "edition_date": "13:45:18",
    "status": 1
  },
  {
    "id": {
      "$oid": "5b9699effc13ae7d8a0000bb"
    },
    "list": {
      "$oid": "5b9692cafc13ae6e230000df"
    },
    "title": 1,
    "description": "Lorem ipsum dolor sit amet, consectetur adipiscing elit. Integer et ex quis ligula vulputate scelerisque.",
    "image": "",
    "creation_date": "2018-01-28",
    "edition_date": "15:19:47",
    "status": 1
  },
  {
    "id": {
      "$oid": "5b9699effc13ae7d8a0000bd"
    },
    "list": {
      "$oid": "5b9692cafc13ae6e230000df"
    },
    "title": 1,
    "description": "Lorem ipsum dolor sit amet, consectetur adipiscing elit. Integer et ex quis ligula vulputate scelerisque.",
    "image": "",
    "creation_date": "2018-08-12",
    "edition_date": "23:46:42",
    "status": 1
  },
  {
    "id": {
      "$oid": "5b9699effc13ae7d8a0000bf"
    },
    "list": {
      "$oid": "5b9692cafc13ae6e230000df"
    },
    "title": 1,
    "description": "Lorem ipsum dolor sit amet, consectetur adipiscing elit. Integer et ex quis ligula vulputate scelerisque.",
    "image": "",
    "creation_date": "2017-12-14",
    "edition_date": "21:23:51",
    "status": 0
  },
  {
    "id": {
      "$oid": "5b9699effc13ae7d8a0000c1"
    },
    "list": {
      "$oid": "5b9692cafc13ae6e230000df"
    },
    "title": 1,
    "description": "Lorem ipsum dolor sit amet, consectetur adipiscing elit. Integer et ex quis ligula vulputate scelerisque.",
    "image": "",
    "creation_date": "2017-12-04",
    "edition_date": "13:27:16",
    "status": 1
  }
]