{
  "initOptions": {
    "classes": {
      "ItemModel": { "entity": "item" },
      "MemberModel": { "entity": "member" }
    },
    "models": {
      "MemberModel": { "entity": "member" },
      "ItemModel": { "entity": "item" }
    },
    "components": {
      "ErrorModal": {
        "defaultId": "modalApplicationError",
        "dataRequired": false,
        "openOnInit": false,
        "modal": {
          "dismissible": false
        }
      },
      "Preloader": {
        "defaultId": "modalPreloader",
        "dataRequired": false,
        "openOnInit": true,
        "modal": {
          "dismissible": false,
          "opacity": 0.75,
          "startingTop": "20%",
          "endingTop": "25%"
        }
      },
      "SignUp": {
        "defaultId": "modalSignUp",
        "dataRequired": false,
        "openOnInit": false,
        "modal": {
          "dismissible": false,
          "opacity": 0.75
        }
      },
      "CreateItem": {
        "defaultId": "modalAddItem",
        "dataRequired": false,
        "modal": {
          "dismissible": false,
          "opacity": 0.95
        }
      },
      "Navigation": {
        "querySelector": ".sidenav",
        "materialOptions": {}
      },
      "GenericList": {
        "startHidden": true
      },
      "ItemCounter": {
        "querySelector": ".fixed-action-btn"
      }
    }
  }
}